EESchema Schematic File Version 2
LIBS:power
LIBS:device
LIBS:transistors
LIBS:conn
LIBS:linear
LIBS:regul
LIBS:74xx
LIBS:cmos4000
LIBS:adc-dac
LIBS:memory
LIBS:xilinx
LIBS:special
LIBS:microcontrollers
LIBS:dsp
LIBS:microchip
LIBS:analog_switches
LIBS:motorola
LIBS:texas
LIBS:intel
LIBS:audio
LIBS:interface
LIBS:digital-audio
LIBS:philips
LIBS:display
LIBS:cypress
LIBS:siliconi
LIBS:opto
LIBS:atmel
LIBS:contrib
LIBS:valves
EELAYER 25 0
EELAYER END
$Descr A4 11693 8268
encoding utf-8
Sheet 1 1
Title ""
Date ""
Rev ""
Comp ""
Comment1 ""
Comment2 ""
Comment3 ""
Comment4 ""
$EndDescr
$Comp
L CONN_02X20 P5
U 1 1 5636B39C
P 4350 3400
F 0 "P5" H 4350 4450 50  0000 C CNN
F 1 "Raspberry Pi 2" V 4350 3400 50  0000 C CNN
F 2 "" H 4350 2450 60  0000 C CNN
F 3 "" H 4350 2450 60  0000 C CNN
	1    4350 3400
	1    0    0    -1  
$EndComp
$Comp
L CONN_01X05 P6
U 1 1 5636C067
P 5100 2500
F 0 "P6" H 5100 2800 50  0000 C CNN
F 1 "CONN_01X05" V 5200 2500 50  0000 C CNN
F 2 "" H 5100 2500 60  0000 C CNN
F 3 "" H 5100 2500 60  0000 C CNN
	1    5100 2500
	1    0    0    1   
$EndComp
$Comp
L CONN_01X05 P7
U 1 1 5636C0BE
P 5300 3050
F 0 "P7" H 5300 3350 50  0000 C CNN
F 1 "CONN_01X05" V 5400 3050 50  0000 C CNN
F 2 "" H 5300 3050 60  0000 C CNN
F 3 "" H 5300 3050 60  0000 C CNN
	1    5300 3050
	1    0    0    1   
$EndComp
$Comp
L CONN_01X05 P8
U 1 1 5636C112
P 5600 3600
F 0 "P8" H 5600 3900 50  0000 C CNN
F 1 "CONN_01X05" V 5700 3600 50  0000 C CNN
F 2 "" H 5600 3600 60  0000 C CNN
F 3 "" H 5600 3600 60  0000 C CNN
	1    5600 3600
	1    0    0    1   
$EndComp
$Comp
L CONN_01X05 P9
U 1 1 5636C616
P 5600 4200
F 0 "P9" H 5600 4500 50  0000 C CNN
F 1 "CONN_01X05" V 5700 4200 50  0000 C CNN
F 2 "" H 5600 4200 60  0000 C CNN
F 3 "" H 5600 4200 60  0000 C CNN
	1    5600 4200
	1    0    0    1   
$EndComp
$Comp
L CONN_01X05 P4
U 1 1 5636CA88
P 3500 2500
F 0 "P4" H 3500 2800 50  0000 C CNN
F 1 "CONN_01X05" V 3600 2500 50  0000 C CNN
F 2 "" H 3500 2500 60  0000 C CNN
F 3 "" H 3500 2500 60  0000 C CNN
	1    3500 2500
	-1   0    0    -1  
$EndComp
$Comp
L CONN_01X05 P3
U 1 1 5636CB2F
P 3650 3150
F 0 "P3" H 3650 3450 50  0000 C CNN
F 1 "CONN_01X05" V 3750 3150 50  0000 C CNN
F 2 "" H 3650 3150 60  0000 C CNN
F 3 "" H 3650 3150 60  0000 C CNN
	1    3650 3150
	-1   0    0    -1  
$EndComp
$Comp
L CONN_01X05 P2
U 1 1 5636CBD1
P 3450 3650
F 0 "P2" H 3450 3950 50  0000 C CNN
F 1 "CONN_01X05" V 3550 3650 50  0000 C CNN
F 2 "" H 3450 3650 60  0000 C CNN
F 3 "" H 3450 3650 60  0000 C CNN
	1    3450 3650
	-1   0    0    -1  
$EndComp
$Comp
L CONN_01X05 P1
U 1 1 5636CD3D
P 3250 4150
F 0 "P1" H 3250 4450 50  0000 C CNN
F 1 "CONN_01X05" V 3350 4150 50  0000 C CNN
F 2 "" H 3250 4150 60  0000 C CNN
F 3 "" H 3250 4150 60  0000 C CNN
	1    3250 4150
	-1   0    0    -1  
$EndComp
$Comp
L +3.3V #PWR01
U 1 1 5636E9C0
P 4100 2300
F 0 "#PWR01" H 4100 2150 50  0001 C CNN
F 1 "+3.3V" H 4100 2440 50  0000 C CNN
F 2 "" H 4100 2300 60  0000 C CNN
F 3 "" H 4100 2300 60  0000 C CNN
	1    4100 2300
	1    0    0    -1  
$EndComp
$Comp
L +5V #PWR02
U 1 1 5636EA43
P 4750 2150
F 0 "#PWR02" H 4750 2000 50  0001 C CNN
F 1 "+5V" H 4750 2290 50  0000 C CNN
F 2 "" H 4750 2150 60  0000 C CNN
F 3 "" H 4750 2150 60  0000 C CNN
	1    4750 2150
	1    0    0    -1  
$EndComp
$Comp
L GND #PWR03
U 1 1 5636EB0E
P 4400 2200
F 0 "#PWR03" H 4400 1950 50  0001 C CNN
F 1 "GND" H 4400 2050 50  0000 C CNN
F 2 "" H 4400 2200 60  0000 C CNN
F 3 "" H 4400 2200 60  0000 C CNN
	1    4400 2200
	-1   0    0    1   
$EndComp
Wire Wire Line
	4100 2450 3700 2300
Wire Wire Line
	3700 2400 4100 2550
Wire Wire Line
	3700 2500 4100 2650
Wire Wire Line
	3700 2600 4100 2750
Wire Wire Line
	3700 2700 4100 2850
Wire Wire Line
	3850 2950 4100 2950
Wire Wire Line
	3850 3050 4100 3050
Wire Wire Line
	3850 3150 4100 3150
Wire Wire Line
	3850 3250 4100 3250
Wire Wire Line
	3850 3350 4100 3350
Wire Wire Line
	3650 3450 4100 3450
Wire Wire Line
	4100 3550 3650 3550
Wire Wire Line
	3650 3650 4100 3650
Wire Wire Line
	3650 3750 4100 3750
Wire Wire Line
	3650 3850 4100 3850
Wire Wire Line
	4100 3950 3450 3950
Wire Wire Line
	3450 4050 4100 4050
Wire Wire Line
	4100 4150 3450 4150
Wire Wire Line
	3450 4250 4100 4250
Wire Wire Line
	4100 4350 3450 4350
Wire Wire Line
	4600 2450 4650 2450
Wire Wire Line
	4650 2450 4650 2300
Wire Wire Line
	4650 2300 4900 2300
Wire Wire Line
	4600 2550 4700 2550
Wire Wire Line
	4700 2550 4700 2400
Wire Wire Line
	4700 2400 4900 2400
Wire Wire Line
	4600 2650 4750 2650
Wire Wire Line
	4750 2650 4750 2500
Wire Wire Line
	4750 2500 4900 2500
Wire Wire Line
	4600 2750 4800 2750
Wire Wire Line
	4800 2750 4800 2600
Wire Wire Line
	4800 2600 4900 2600
Wire Wire Line
	4600 2850 4850 2850
Wire Wire Line
	4850 2850 4850 2700
Wire Wire Line
	4850 2700 4900 2700
Wire Wire Line
	4600 2950 4900 2950
Wire Wire Line
	4900 2950 4900 2850
Wire Wire Line
	4900 2850 5100 2850
Wire Wire Line
	4600 3050 4950 3050
Wire Wire Line
	4950 3050 4950 2950
Wire Wire Line
	4950 2950 5100 2950
Wire Wire Line
	4600 3150 5000 3150
Wire Wire Line
	5000 3150 5000 3050
Wire Wire Line
	5000 3050 5100 3050
Wire Wire Line
	4600 3250 5000 3250
Wire Wire Line
	5000 3250 5000 3200
Wire Wire Line
	5000 3200 5050 3200
Wire Wire Line
	5050 3200 5050 3150
Wire Wire Line
	5050 3150 5100 3150
Wire Wire Line
	4600 3350 5100 3350
Wire Wire Line
	5100 3350 5100 3250
Wire Wire Line
	4600 3450 5350 3450
Wire Wire Line
	5350 3450 5350 3400
Wire Wire Line
	5350 3400 5400 3400
Wire Wire Line
	5400 3500 4600 3500
Wire Wire Line
	4600 3500 4600 3550
Wire Wire Line
	4600 3650 5400 3650
Wire Wire Line
	5400 3650 5400 3600
Wire Wire Line
	4600 3750 5400 3750
Wire Wire Line
	5400 3750 5400 3700
Wire Wire Line
	4600 3850 5400 3850
Wire Wire Line
	5400 3850 5400 3800
Wire Wire Line
	4600 3950 5400 3950
Wire Wire Line
	5400 3950 5400 4000
Wire Wire Line
	4600 4050 5250 4050
Wire Wire Line
	5250 4050 5250 4100
Wire Wire Line
	5250 4100 5400 4100
Wire Wire Line
	4600 4200 5400 4200
Wire Wire Line
	4600 4200 4600 4150
Wire Wire Line
	4600 4250 5400 4250
Wire Wire Line
	5400 4250 5400 4300
Wire Wire Line
	4600 4350 5400 4350
Wire Wire Line
	5400 4350 5400 4400
Wire Wire Line
	4100 2450 4100 2300
Wire Wire Line
	4750 2150 4750 2400
Connection ~ 4750 2300
Connection ~ 4750 2400
Wire Wire Line
	4200 2250 4850 2250
Wire Wire Line
	4850 2250 4850 2500
Connection ~ 4850 2500
Wire Wire Line
	4400 2250 4400 2200
Wire Wire Line
	4200 2250 4200 2350
Wire Wire Line
	4200 2350 3850 2350
Wire Wire Line
	3850 2350 3850 2700
Wire Wire Line
	3850 2700 3700 2700
Connection ~ 4400 2250
Wire Wire Line
	4100 2400 4050 2400
Wire Wire Line
	4050 2400 4050 3250
Connection ~ 4050 3250
Connection ~ 4100 2400
$Comp
L GND #PWR04
U 1 1 5636EF2B
P 4350 4700
F 0 "#PWR04" H 4350 4450 50  0001 C CNN
F 1 "GND" H 4350 4550 50  0000 C CNN
F 2 "" H 4350 4700 60  0000 C CNN
F 3 "" H 4350 4700 60  0000 C CNN
	1    4350 4700
	1    0    0    -1  
$EndComp
Wire Wire Line
	4000 4350 4000 4700
Wire Wire Line
	4000 4700 4750 4700
Connection ~ 4000 4350
Wire Wire Line
	4750 4700 4750 3850
Connection ~ 4350 4700
Connection ~ 4750 3850
Wire Wire Line
	4750 4150 4800 4150
Wire Wire Line
	4800 4150 4800 4050
Connection ~ 4800 4050
Connection ~ 4750 4150
Wire Wire Line
	4750 3900 4800 3900
Wire Wire Line
	4800 3900 4800 3050
Connection ~ 4800 3050
Connection ~ 4750 3900
Wire Wire Line
	4800 3400 4850 3400
Wire Wire Line
	4850 3400 4850 3350
Connection ~ 4850 3350
Connection ~ 4800 3400
Wire Wire Line
	3800 3650 3800 4450
Wire Wire Line
	3800 4450 4000 4450
Connection ~ 4000 4450
Connection ~ 3800 3650
$EndSCHEMATC
