999
dxfrw 0.6.1
  0
SECTION
  2
HEADER
  9
$ACADVER
  1
AC1021
  9
$DWGCODEPAGE
  3
ANSI_1252
  9
$INSBASE
 10
0
 20
0
 30
0
  9
$EXTMIN
 10
-8.325182083983597
 20
-6.166513863109135
 30
0
  9
$EXTMAX
 10
84
 20
104
 30
0
  9
$LIMMIN
 10
0
 20
0
  9
$LIMMAX
 10
420
 20
297
  9
$ORTHOMODE
 70
    0
  9
$REGENMODE
 70
    1
  9
$FILLMODE
 70
    1
  9
$QTEXTMODE
 70
    0
  9
$MIRRTEXT
 70
    0
  9
$LTSCALE
 40
1
  9
$ATTMODE
 70
    0
  9
$TEXTSIZE
 40
2.5
  9
$TRACEWID
 40
15.68
  9
$TEXTSTYLE
  7
STANDARD
  9
$CLAYER
  8
Frame
  9
$CELTYPE
  6
BYLAYER
  9
$CECOLOR
 62
  256
  9
$CELTSCALE
 40
1
  9
$DISPSILH
 70
    0
  9
$DIMSCALE
 40
1
  9
$DIMASZ
 40
1
  9
$DIMEXO
 40
0.025
  9
$DIMDLI
 40
3.75
  9
$DIMRND
 40
0
  9
$DIMDLE
 40
0
  9
$DIMEXE
 40
0.05
  9
$DIMTP
 40
0
  9
$DIMTM
 40
0
  9
$DIMTXT
 40
1
  9
$DIMCEN
 40
2.5
  9
$DIMTSZ
 40
0
  9
$DIMTOL
 70
    0
  9
$DIMLIM
 70
    0
  9
$DIMTIH
 70
    0
  9
$DIMTOH
 70
    0
  9
$DIMSE1
 70
    0
  9
$DIMSE2
 70
    0
  9
$DIMTAD
 70
    1
  9
$DIMZIN
 70
    8
  9
$DIMBLK
  1

  9
$DIMASO
 70
    1
  9
$DIMSHO
 70
    1
  9
$DIMPOST
  1

  9
$DIMAPOST
  1

  9
$DIMALT
 70
    0
  9
$DIMALTD
 70
    3
  9
$DIMALTF
 40
0.03937
  9
$DIMLFAC
 40
1
  9
$DIMTOFL
 70
    1
  9
$DIMTVP
 40
0
  9
$DIMTIX
 70
    0
  9
$DIMSOXD
 70
    0
  9
$DIMSAH
 70
    0
  9
$DIMBLK1
  1

  9
$DIMBLK2
  1

  9
$DIMSTYLE
  2
STANDARD
  9
$DIMCLRD
 70
    0
  9
$DIMCLRE
 70
    0
  9
$DIMCLRT
 70
    0
  9
$DIMTFAC
 40
1
  9
$DIMGAP
 40
0.025
  9
$DIMJUST
 70
    0
  9
$DIMSD1
 70
    0
  9
$DIMSD2
 70
    0
  9
$DIMTOLJ
 70
    0
  9
$DIMTZIN
 70
    8
  9
$DIMALTZ
 70
    0
  9
$DIMALTTZ
 70
    0
  9
$DIMUPT
 70
    0
  9
$DIMDEC
 70
    4
  9
$DIMTDEC
 70
    2
  9
$DIMALTU
 70
    2
  9
$DIMALTTD
 70
    3
  9
$DIMTXSTY
  7
standard
  9
$DIMAUNIT
 70
    0
  9
$DIMADEC
 70
    2
  9
$DIMALTRND
 40
0
  9
$DIMAZIN
 70
    0
  9
$DIMDSEP
 70
   44
  9
$DIMATFIT
 70
    3
  9
$DIMFRAC
 70
    0
  9
$DIMLDRBLK
  1
STANDARD
  9
$DIMLUNIT
 70
    5
  9
$DIMLWD
 70
   -2
  9
$DIMLWE
 70
   -2
  9
$DIMTMOVE
 70
    0
  9
$DIMFXL
 40
0.04
  9
$DIMFXLON
 70
    0
  9
$DIMJOGANG
 40
0.7854
  9
$DIMTFILL
 70
    0
  9
$DIMTFILLCLR
 70
    0
  9
$DIMARCSYM
 70
    0
  9
$DIMLTYPE
  6

  9
$DIMLTEX1
  6

  9
$DIMLTEX2
  6

  9
$LUNITS
 70
    2
  9
$LUPREC
 70
    4
  9
$SKETCHINC
 40
1
  9
$FILLETRAD
 40
0
  9
$AUNITS
 70
    0
  9
$AUPREC
 70
    2
  9
$MENU
  1
.
  9
$ELEVATION
 40
0
  9
$PELEVATION
 40
0
  9
$THICKNESS
 40
0
  9
$LIMCHECK
 70
    0
  9
$CHAMFERA
 40
0
  9
$CHAMFERB
 40
0
  9
$CHAMFERC
 40
0
  9
$CHAMFERD
 40
0
  9
$SKPOLY
 70
    0
  9
$USRTIMER
 70
    1
  9
$ANGBASE
 50
0
  9
$ANGDIR
 70
    0
  9
$PDMODE
 70
   34
  9
$PDSIZE
 40
0
  9
$PLINEWID
 40
0
  9
$SPLFRAME
 70
    0
  9
$SPLINETYPE
 70
    2
  9
$SPLINESEGS
 70
    8
  9
$HANDSEED
  5
20000
  9
$SURFTAB1
 70
    6
  9
$SURFTAB2
 70
    6
  9
$SURFTYPE
 70
    6
  9
$SURFU
 70
    6
  9
$SURFV
 70
    6
  9
$UCSBASE
  2

  9
$UCSNAME
  2

  9
$UCSORG
 10
0
 20
0
 30
0
  9
$UCSXDIR
 10
1
 20
0
 30
0
  9
$UCSYDIR
 10
0
 20
1
 30
0
  9
$UCSORTHOREF
  2

  9
$UCSORTHOVIEW
 70
    0
  9
$UCSORGTOP
 10
0
 20
0
 30
0
  9
$UCSORGBOTTOM
 10
0
 20
0
 30
0
  9
$UCSORGLEFT
 10
0
 20
0
 30
0
  9
$UCSORGRIGHT
 10
0
 20
0
 30
0
  9
$UCSORGFRONT
 10
0
 20
0
 30
0
  9
$UCSORGBACK
 10
0
 20
0
 30
0
  9
$PUCSBASE
  2

  9
$PUCSNAME
  2

  9
$PUCSORG
 10
0
 20
0
 30
0
  9
$PUCSXDIR
 10
1
 20
0
 30
0
  9
$PUCSYDIR
 10
0
 20
1
 30
0
  9
$PUCSORTHOREF
  2

  9
$PUCSORTHOVIEW
 70
    0
  9
$PUCSORGTOP
 10
0
 20
0
 30
0
  9
$PUCSORGBOTTOM
 10
0
 20
0
 30
0
  9
$PUCSORGLEFT
 10
0
 20
0
 30
0
  9
$PUCSORGRIGHT
 10
0
 20
0
 30
0
  9
$PUCSORGFRONT
 10
0
 20
0
 30
0
  9
$PUCSORGBACK
 10
0
 20
0
 30
0
  9
$USERI1
 70
    0
  9
$USERI2
 70
    0
  9
$USERI3
 70
    0
  9
$USERI4
 70
    0
  9
$USERI5
 70
    0
  9
$USERR1
 40
0
  9
$USERR2
 40
0
  9
$USERR3
 40
0
  9
$USERR4
 40
0
  9
$USERR5
 40
0
  9
$WORLDVIEW
 70
    1
  9
$SHADEDGE
 70
    3
  9
$SHADEDIF
 70
   70
  9
$TILEMODE
 70
    1
  9
$MAXACTVP
 70
   64
  9
$PINSBASE
 10
2.346097074077832
 20
0.8394219705690751
 30
0
  9
$PLIMCHECK
 70
    0
  9
$PEXTMIN
 10
0
 20
0
 30
0
  9
$PEXTMAX
 10
0
 20
0
 30
0
  9
$GRIDMODE
 70
    1
  9
$SNAPSTYLE
 70
    0
  9
$GRIDUNIT
 10
0
 20
0
  9
$PLIMMIN
 10
0
 20
0
  9
$PLIMMAX
 10
11
 20
8.5
  9
$UNITMODE
 70
    0
  9
$VISRETAIN
 70
    1
  9
$PLINEGEN
 70
    0
  9
$PSLTSCALE
 70
    1
  9
$TREEDEPTH
 70
 3020
  9
$CMLSTYLE
  2
Standard
  9
$CMLJUST
 70
    0
  9
$CMLSCALE
 40
20
  9
$PROXYGRAPHICS
 70
    1
  9
$MEASUREMENT
 70
    1
  9
$CELWEIGHT
370
   -1
  9
$ENDCAPS
280
    0
  9
$JOINSTYLE
280
    0
  9
$LWDISPLAY
290
    0
  9
$INSUNITS
 70
    1
  9
$HYPERLINKBASE
  1

  9
$STYLESHEET
  1

  9
$XEDIT
290
    1
  9
$CEPSNTYPE
380
    0
  9
$PSTYLEMODE
290
    1
  9
$EXTNAMES
290
    1
  9
$PSVPSCALE
 40
0.08335417187630241
  9
$OLESTARTUP
290
    0
  9
$SORTENTS
280
  127
  9
$INDEXCTL
280
    0
  9
$HIDETEXT
280
    1
  9
$XCLIPFRAME
290
    0
  9
$HALOGAP
280
    0
  9
$OBSCOLOR
 70
  257
  9
$OBSLTYPE
280
    0
  9
$INTERSECTIONDISPLAY
280
    0
  9
$INTERSECTIONCOLOR
 70
  257
  9
$DIMASSOC
280
    0
  9
$PROJECTNAME
  1

  9
$CAMERADISPLAY
290
    0
  9
$LENSLENGTH
 40
50
  9
$CAMERAHEIGHT
 40
0
  9
$STEPSPERSEC
 40
2
  9
$STEPSIZE
 40
50
  9
$3DDWFPREC
 40
2
  9
$PSOLWIDTH
 40
5
  9
$PSOLHEIGHT
 40
80
  9
$LOFTANG1
 40
1.570796326794897
  9
$LOFTANG2
 40
1.570796326794897
  9
$LOFTMAG1
 40
0
  9
$LOFTMAG2
 40
0
  9
$LOFTPARAM
 70
    7
  9
$LOFTNORMALS
280
    1
  9
$LATITUDE
 40
1
  9
$LONGITUDE
 40
1
  9
$NORTHDIRECTION
 40
0
  9
$TIMEZONE
 70
-8000
  9
$LIGHTGLYPHDISPLAY
280
    1
  9
$TILEMODELIGHTSYNCH
280
    1
  9
$SOLIDHIST
280
    1
  9
$SHOWHIST
280
    1
  9
$DWFFRAME
280
    2
  9
$DGNFRAME
280
    0
  9
$REALWORLDSCALE
290
    1
  9
$INTERFERECOLOR
 62
    1
  9
$CSHADOW
280
    0
  9
$SHADOWPLANELOCATION
 40
0
  0
ENDSEC
  0
SECTION
  2
CLASSES
  0
ENDSEC
  0
SECTION
  2
TABLES
  0
TABLE
  2
VPORT
  5
8
330
0
100
AcDbSymbolTable
 70
    1
  0
VPORT
  5
31
330
2
100
AcDbSymbolTableRecord
100
AcDbViewportTableRecord
  2
*ACTIVE
 70
    0
 10
0
 20
0
 11
1
 21
1
 12
110.3969814111168
 22
83.76545153354023
 13
0
 23
0
 14
10
 24
10
 15
10
 25
10
 16
0
 26
0
 36
1
 17
0
 27
0
 37
0
 40
176.2016337248961
 41
1.908611599297012
 42
50
 43
0
 44
0
 50
0
 51
0
 71
    0
 72
  100
 73
    1
 74
    3
 75
    0
 76
    1
 77
    0
 78
    0
281
    0
 65
    1
110
0
120
0
130
0
111
1
121
0
131
0
112
0
122
1
132
0
 79
    0
146
0
348
10020
 60
    7
 61
    5
292
1
282
    1
141
0
142
0
 63
  250
421
3358443
  0
ENDTAB
  0
TABLE
  2
LTYPE
  5
5
330
0
100
AcDbSymbolTable
 70
    4
  0
LTYPE
  5
14
330
5
100
AcDbSymbolTableRecord
100
AcDbLinetypeTableRecord
  2
ByBlock
 70
    0
  3

 72
   65
 73
    0
 40
0
  0
LTYPE
  5
15
330
5
100
AcDbSymbolTableRecord
100
AcDbLinetypeTableRecord
  2
ByLayer
 70
    0
  3

 72
   65
 73
    0
 40
0
  0
LTYPE
  5
16
330
5
100
AcDbSymbolTableRecord
100
AcDbLinetypeTableRecord
  2
Continuous
 70
    0
  3
Solid line
 72
   65
 73
    0
 40
0
  0
LTYPE
  5
32
330
5
100
AcDbSymbolTableRecord
100
AcDbLinetypeTableRecord
  2
DOT
 70
    0
  3
Dot . . . . . . . . . . . . . . . . . . . . . .
 72
   65
 73
    2
 40
6.35
 49
0
 74
    0
 49
-6.35
 74
    0
  0
LTYPE
  5
33
330
5
100
AcDbSymbolTableRecord
100
AcDbLinetypeTableRecord
  2
DOTTINY
 70
    0
  3
Dot (.15x) .....................................
 72
   65
 73
    2
 40
0.9525
 49
0
 74
    0
 49
-0.9525
 74
    0
  0
LTYPE
  5
34
330
5
100
AcDbSymbolTableRecord
100
AcDbLinetypeTableRecord
  2
DOT2
 70
    0
  3
Dot (.5x) .....................................
 72
   65
 73
    2
 40
3.175
 49
0
 74
    0
 49
-3.175
 74
    0
  0
LTYPE
  5
35
330
5
100
AcDbSymbolTableRecord
100
AcDbLinetypeTableRecord
  2
DOTX2
 70
    0
  3
Dot (2x) .  .  .  .  .  .  .  .  .  .  .  .  .
 72
   65
 73
    2
 40
12.7
 49
0
 74
    0
 49
-12.7
 74
    0
  0
LTYPE
  5
36
330
5
100
AcDbSymbolTableRecord
100
AcDbLinetypeTableRecord
  2
DASHED
 70
    0
  3
Dashed _ _ _ _ _ _ _ _ _ _ _ _ _ _ _ _ _
 72
   65
 73
    2
 40
19.05
 49
12.7
 74
    0
 49
-6.35
 74
    0
  0
LTYPE
  5
37
330
5
100
AcDbSymbolTableRecord
100
AcDbLinetypeTableRecord
  2
DASHEDTINY
 70
    0
  3
Dashed (.15x) _ _ _ _ _ _ _ _ _ _ _ _ _ _ _ _ _
 72
   65
 73
    2
 40
2.8575
 49
1.905
 74
    0
 49
-0.9525
 74
    0
  0
LTYPE
  5
38
330
5
100
AcDbSymbolTableRecord
100
AcDbLinetypeTableRecord
  2
DASHED2
 70
    0
  3
Dashed (.5x) _ _ _ _ _ _ _ _ _ _ _ _ _ _ _ _ _
 72
   65
 73
    2
 40
9.524999999999999
 49
6.35
 74
    0
 49
-3.175
 74
    0
  0
LTYPE
  5
39
330
5
100
AcDbSymbolTableRecord
100
AcDbLinetypeTableRecord
  2
DASHEDX2
 70
    0
  3
Dashed (2x) ____  ____  ____  ____  ____  ___
 72
   65
 73
    2
 40
38.09999999999999
 49
25.4
 74
    0
 49
-12.7
 74
    0
  0
LTYPE
  5
3A
330
5
100
AcDbSymbolTableRecord
100
AcDbLinetypeTableRecord
  2
DASHDOT
 70
    0
  3
Dash dot __ . __ . __ . __ . __ . __ . __ . __
 72
   65
 73
    4
 40
25.4
 49
12.7
 74
    0
 49
-6.35
 74
    0
 49
0
 74
    0
 49
-6.35
 74
    0
  0
LTYPE
  5
3B
330
5
100
AcDbSymbolTableRecord
100
AcDbLinetypeTableRecord
  2
DASHDOTTINY
 70
    0
  3
Dash dot (.15x) _._._._._._._._._._._._._._._.
 72
   65
 73
    4
 40
3.81
 49
1.905
 74
    0
 49
-0.9525
 74
    0
 49
0
 74
    0
 49
-0.9525
 74
    0
  0
LTYPE
  5
3C
330
5
100
AcDbSymbolTableRecord
100
AcDbLinetypeTableRecord
  2
DASHDOT2
 70
    0
  3
Dash dot (.5x) _._._._._._._._._._._._._._._.
 72
   65
 73
    4
 40
12.7
 49
6.35
 74
    0
 49
-3.175
 74
    0
 49
0
 74
    0
 49
-3.175
 74
    0
  0
LTYPE
  5
3D
330
5
100
AcDbSymbolTableRecord
100
AcDbLinetypeTableRecord
  2
DASHDOTX2
 70
    0
  3
Dash dot (2x) ____  .  ____  .  ____  .  ___
 72
   65
 73
    4
 40
50.8
 49
25.4
 74
    0
 49
-12.7
 74
    0
 49
0
 74
    0
 49
-12.7
 74
    0
  0
LTYPE
  5
3E
330
5
100
AcDbSymbolTableRecord
100
AcDbLinetypeTableRecord
  2
DIVIDE
 70
    0
  3
Divide ____ . . ____ . . ____ . . ____ . . ____
 72
   65
 73
    6
 40
31.75
 49
12.7
 74
    0
 49
-6.35
 74
    0
 49
0
 74
    0
 49
-6.35
 74
    0
 49
0
 74
    0
 49
-6.35
 74
    0
  0
LTYPE
  5
3F
330
5
100
AcDbSymbolTableRecord
100
AcDbLinetypeTableRecord
  2
DIVIDETINY
 70
    0
  3
Divide (.15x) __..__..__..__..__..__..__..__.._
 72
   65
 73
    6
 40
4.7625
 49
1.905
 74
    0
 49
-0.9525
 74
    0
 49
0
 74
    0
 49
-0.9525
 74
    0
 49
0
 74
    0
 49
-0.9525
 74
    0
  0
LTYPE
  5
40
330
5
100
AcDbSymbolTableRecord
100
AcDbLinetypeTableRecord
  2
DIVIDE2
 70
    0
  3
Divide (.5x) __..__..__..__..__..__..__..__.._
 72
   65
 73
    6
 40
15.875
 49
6.35
 74
    0
 49
-3.175
 74
    0
 49
0
 74
    0
 49
-3.175
 74
    0
 49
0
 74
    0
 49
-3.175
 74
    0
  0
LTYPE
  5
41
330
5
100
AcDbSymbolTableRecord
100
AcDbLinetypeTableRecord
  2
DIVIDEX2
 70
    0
  3
Divide (2x) ________  .  .  ________  .  .  _
 72
   65
 73
    6
 40
63.5
 49
25.4
 74
    0
 49
-12.7
 74
    0
 49
0
 74
    0
 49
-12.7
 74
    0
 49
0
 74
    0
 49
-12.7
 74
    0
  0
LTYPE
  5
42
330
5
100
AcDbSymbolTableRecord
100
AcDbLinetypeTableRecord
  2
BORDER
 70
    0
  3
Border __ __ . __ __ . __ __ . __ __ . __ __ .
 72
   65
 73
    6
 40
44.45
 49
12.7
 74
    0
 49
-6.35
 74
    0
 49
12.7
 74
    0
 49
-6.35
 74
    0
 49
0
 74
    0
 49
-6.35
 74
    0
  0
LTYPE
  5
43
330
5
100
AcDbSymbolTableRecord
100
AcDbLinetypeTableRecord
  2
BORDERTINY
 70
    0
  3
Border (.15x) __.__.__.__.__.__.__.__.__.__.__.
 72
   65
 73
    6
 40
6.6675
 49
1.905
 74
    0
 49
-0.9525
 74
    0
 49
1.905
 74
    0
 49
-0.9525
 74
    0
 49
0
 74
    0
 49
-0.9525
 74
    0
  0
LTYPE
  5
44
330
5
100
AcDbSymbolTableRecord
100
AcDbLinetypeTableRecord
  2
BORDER2
 70
    0
  3
Border (.5x) __.__.__.__.__.__.__.__.__.__.__.
 72
   65
 73
    6
 40
22.225
 49
6.35
 74
    0
 49
-3.175
 74
    0
 49
6.35
 74
    0
 49
-3.175
 74
    0
 49
0
 74
    0
 49
-3.175
 74
    0
  0
LTYPE
  5
45
330
5
100
AcDbSymbolTableRecord
100
AcDbLinetypeTableRecord
  2
BORDERX2
 70
    0
  3
Border (2x) ____  ____  .  ____  ____  .  ___
 72
   65
 73
    6
 40
88.89999999999999
 49
25.4
 74
    0
 49
-12.7
 74
    0
 49
25.4
 74
    0
 49
-12.7
 74
    0
 49
0
 74
    0
 49
-12.7
 74
    0
  0
LTYPE
  5
46
330
5
100
AcDbSymbolTableRecord
100
AcDbLinetypeTableRecord
  2
CENTER
 70
    0
  3
Center ____ _ ____ _ ____ _ ____ _ ____ _ ____
 72
   65
 73
    4
 40
50.8
 49
31.75
 74
    0
 49
-6.35
 74
    0
 49
6.35
 74
    0
 49
-6.35
 74
    0
  0
LTYPE
  5
47
330
5
100
AcDbSymbolTableRecord
100
AcDbLinetypeTableRecord
  2
CENTERTINY
 70
    0
  3
Center (.15x) ___ _ ___ _ ___ _ ___ _ ___ _ ___
 72
   65
 73
    4
 40
7.619999999999999
 49
4.7625
 74
    0
 49
-0.9525
 74
    0
 49
0.9525
 74
    0
 49
-0.9525
 74
    0
  0
LTYPE
  5
48
330
5
100
AcDbSymbolTableRecord
100
AcDbLinetypeTableRecord
  2
CENTER2
 70
    0
  3
Center (.5x) ___ _ ___ _ ___ _ ___ _ ___ _ ___
 72
   65
 73
    4
 40
28.575
 49
19.05
 74
    0
 49
-3.175
 74
    0
 49
3.175
 74
    0
 49
-3.175
 74
    0
  0
LTYPE
  5
49
330
5
100
AcDbSymbolTableRecord
100
AcDbLinetypeTableRecord
  2
CENTERX2
 70
    0
  3
Center (2x) ________  __  ________  __  _____
 72
   65
 73
    4
 40
101.6
 49
63.5
 74
    0
 49
-12.7
 74
    0
 49
12.7
 74
    0
 49
-12.7
 74
    0
  0
ENDTAB
  0
TABLE
  2
LAYER
  5
2
330
0
100
AcDbSymbolTable
 70
    1
  0
LAYER
  5
10
330
2
100
AcDbSymbolTableRecord
100
AcDbLayerTableRecord
  2
0
 70
    0
 62
    7
  6
CONTINUOUS
370
    0
390
F
  0
LAYER
  5
4A
330
2
100
AcDbSymbolTableRecord
100
AcDbLayerTableRecord
  2
DimLines
 70
    0
 62
  136
420
32896
  6
CONTINUOUS
370
   13
390
F
  0
LAYER
  5
4B
330
2
100
AcDbSymbolTableRecord
100
AcDbLayerTableRecord
  2
Frame
 70
    0
 62
    6
  6
CONTINUOUS
290
0
370
   18
390
F
  0
LAYER
  5
4C
330
2
100
AcDbSymbolTableRecord
100
AcDbLayerTableRecord
  2
FrameHidden
 70
    0
 62
    7
  6
DASHED
290
0
370
   18
390
F
  0
LAYER
  5
4D
330
2
100
AcDbSymbolTableRecord
100
AcDbLayerTableRecord
  2
HiddenLines
 70
    0
 62
    1
  6
DASHEDTINY
370
    0
390
F
  0
LAYER
  5
4E
330
2
100
AcDbSymbolTableRecord
100
AcDbLayerTableRecord
  2
ObjectLines
 70
    0
 62
    7
  6
CONTINUOUS
370
   35
390
F
  0
LAYER
  5
4F
330
2
100
AcDbSymbolTableRecord
100
AcDbLayerTableRecord
  2
Text
 70
    0
 62
    7
  6
CONTINUOUS
370
    0
390
F
  0
ENDTAB
  0
TABLE
  2
STYLE
  5
3
330
0
100
AcDbSymbolTable
 70
    3
  0
STYLE
  5
50
330
2
100
AcDbSymbolTableRecord
100
AcDbTextStyleTableRecord
  2
standard
 70
    0
 40
0
 41
1
 50
0
 71
    0
 42
1
  3
standard
  4

  0
ENDTAB
  0
TABLE
  2
VIEW
  5
6
330
0
100
AcDbSymbolTable
 70
    0
  0
ENDTAB
  0
TABLE
  2
UCS
  5
7
330
0
100
AcDbSymbolTable
 70
    0
  0
ENDTAB
  0
TABLE
  2
APPID
  5
9
330
0
100
AcDbSymbolTable
 70
    1
  0
APPID
  5
12
330
9
100
AcDbSymbolTableRecord
100
AcDbRegAppTableRecord
  2
ACAD
 70
    0
  0
APPID
  5
51
330
9
100
AcDbSymbolTableRecord
100
AcDbRegAppTableRecord
  2
LibreCad
 70
    0
  0
ENDTAB
  0
TABLE
  2
DIMSTYLE
  5
A
330
0
100
AcDbSymbolTable
 70
    1
100
AcDbDimStyleTable
 71
    1
  0
DIMSTYLE
105
52
330
A
100
AcDbSymbolTableRecord
100
AcDbDimStyleTableRecord
  2
Standard
 70
    0
 40
1
 41
1
 42
0.025
 43
0.38
 44
0.05
 45
0
 46
0
 47
0
 48
0
140
1
141
0.09
142
0
143
25.4
144
1
145
0
146
1
147
0.025
148
0
 71
    0
 72
    0
 73
    0
 74
    1
 75
    0
 76
    0
 77
    0
 78
    0
 79
    0
170
    0
171
    2
172
    0
173
    0
174
    0
175
    0
176
    0
177
    0
178
    0
179
    0
271
    4
272
    4
273
    2
274
    2
275
    0
276
    0
277
    2
278
   46
279
    0
280
    0
281
    0
282
    0
283
    1
284
    0
285
    0
286
    0
288
    0
289
    3
340
Standard
341

371
   -2
372
   -2
  0
ENDTAB
  0
TABLE
  2
BLOCK_RECORD
  5
1
330
0
100
AcDbSymbolTable
 70
    2
  0
BLOCK_RECORD
  5
1F
330
1
100
AcDbSymbolTableRecord
100
AcDbBlockTableRecord
  2
*Model_Space
 70
    0
280
    1
281
    0
  0
BLOCK_RECORD
  5
1E
330
1
100
AcDbSymbolTableRecord
100
AcDbBlockTableRecord
  2
*Paper_Space
 70
    0
280
    1
281
    0
  0
BLOCK_RECORD
  5
53
330
1
100
AcDbSymbolTableRecord
100
AcDbBlockTableRecord
  2
*D2
 70
    0
280
    1
281
    0
  0
BLOCK_RECORD
  5
56
330
1
100
AcDbSymbolTableRecord
100
AcDbBlockTableRecord
  2
*D3
 70
    0
280
    1
281
    0
  0
BLOCK_RECORD
  5
59
330
1
100
AcDbSymbolTableRecord
100
AcDbBlockTableRecord
  2
*D5
 70
    0
280
    1
281
    0
  0
BLOCK_RECORD
  5
5C
330
1
100
AcDbSymbolTableRecord
100
AcDbBlockTableRecord
  2
*D7
 70
    0
280
    1
281
    0
  0
BLOCK_RECORD
  5
5F
330
1
100
AcDbSymbolTableRecord
100
AcDbBlockTableRecord
  2
*D11
 70
    0
280
    1
281
    0
  0
BLOCK_RECORD
  5
62
330
1
100
AcDbSymbolTableRecord
100
AcDbBlockTableRecord
  2
*D12
 70
    0
280
    1
281
    0
  0
BLOCK_RECORD
  5
65
330
1
100
AcDbSymbolTableRecord
100
AcDbBlockTableRecord
  2
*D4
 70
    0
280
    1
281
    0
  0
BLOCK_RECORD
  5
68
330
1
100
AcDbSymbolTableRecord
100
AcDbBlockTableRecord
  2
*D9
 70
    0
280
    1
281
    0
  0
BLOCK_RECORD
  5
6B
330
1
100
AcDbSymbolTableRecord
100
AcDbBlockTableRecord
  2
*D13
 70
    0
280
    1
281
    0
  0
BLOCK_RECORD
  5
6E
330
1
100
AcDbSymbolTableRecord
100
AcDbBlockTableRecord
  2
*D10
 70
    0
280
    1
281
    0
  0
BLOCK_RECORD
  5
71
330
1
100
AcDbSymbolTableRecord
100
AcDbBlockTableRecord
  2
*D6
 70
    0
280
    1
281
    0
  0
BLOCK_RECORD
  5
74
330
1
100
AcDbSymbolTableRecord
100
AcDbBlockTableRecord
  2
*D14
 70
    0
280
    1
281
    0
  0
BLOCK_RECORD
  5
77
330
1
100
AcDbSymbolTableRecord
100
AcDbBlockTableRecord
  2
*D8
 70
    0
280
    1
281
    0
  0
BLOCK_RECORD
  5
7A
330
1
100
AcDbSymbolTableRecord
100
AcDbBlockTableRecord
  2
*D1
 70
    0
280
    1
281
    0
  0
BLOCK_RECORD
  5
7D
330
1
100
AcDbSymbolTableRecord
100
AcDbBlockTableRecord
  2
*D15
 70
    0
280
    1
281
    0
  0
ENDTAB
  0
ENDSEC
  0
SECTION
  2
BLOCKS
  0
BLOCK
  5
20
330
1F
100
AcDbEntity
  8
0
100
AcDbBlockBegin
  2
*Model_Space
 70
    0
 10
0
 20
0
 30
0
  3
*Model_Space
  1

  0
ENDBLK
  5
21
330
1F
100
AcDbEntity
  8
0
100
AcDbBlockEnd
  0
BLOCK
  5
1C
330
1B
100
AcDbEntity
  8
0
100
AcDbBlockBegin
  2
*Paper_Space
 70
    0
 10
0
 20
0
 30
0
  3
*Paper_Space
  1

  0
ENDBLK
  5
1D
330
1F
100
AcDbEntity
  8
0
100
AcDbBlockEnd
  0
BLOCK
  5
54
330
53
100
AcDbEntity
  8
0
100
AcDbBlockBegin
  2
*D2
 70
    1
 10
0
 20
0
  3
*D2
  1

  0
LINE
  5
80
100
AcDbEntity
  8
DimLines
  6
ByBlock
 62
    0
370
   -2
100
AcDbLine
 10
-4.592425496802574e-18
 20
-0.025
 11
-5.602759106099141e-16
 21
-3.05
  0
LINE
  5
81
100
AcDbEntity
  8
DimLines
  6
ByBlock
 62
    0
370
   -2
100
AcDbLine
 10
30
 20
-0.025
 11
30
 21
-3.05
  0
LINE
  5
82
100
AcDbEntity
  8
DimLines
  6
ByBlock
 62
    0
370
   -2
100
AcDbLine
 10
-5.51091059616309e-16
 20
-3
 11
30
 21
-3
  0
SOLID
  5
83
100
AcDbEntity
  8
DimLines
  6
ByBlock
 62
    0
370
   -2
100
AcDbTrace
 10
-5.51091059616309e-16
 20
-3
 30
0
 11
0.9999999999999994
 21
-2.833486136890864
 31
0
 12
0.9999999999999994
 22
-3.166513863109136
 32
0
 13
0.9999999999999994
 23
-3.166513863109136
 33
0
  0
SOLID
  5
84
100
AcDbEntity
  8
DimLines
  6
ByBlock
 62
    0
370
   -2
100
AcDbTrace
 10
30
 20
-3
 30
0
 11
29
 21
-3.166513863109136
 31
0
 12
29
 22
-2.833486136890864
 32
0
 13
29
 23
-2.833486136890864
 33
0
  0
MTEXT
  5
85
100
AcDbEntity
  8
DimLines
  6
CONTINUOUS
 62
    0
370
   -2
100
AcDbMText
 10
15
 20
-2.475
 30
0
 40
1
 41
1.222222222222284
 71
    5
 72
    1
  1
30
  7
standard
210
0
220
0
230
1
 50
0
 73
    2
 44
1
  0
ENDBLK
  5
55
330
53
100
AcDbEntity
  8
0
100
AcDbBlockEnd
  0
BLOCK
  5
57
330
56
100
AcDbEntity
  8
0
100
AcDbBlockBegin
  2
*D3
 70
    1
 10
0
 20
0
  3
*D3
  1

  0
LINE
  5
86
100
AcDbEntity
  8
DimLines
  6
ByBlock
 62
    0
370
   -2
100
AcDbLine
 10
-8.158668220874461
 20
0
 11
-8.158668220874457
 21
70
  0
SOLID
  5
87
100
AcDbEntity
  8
DimLines
  6
ByBlock
 62
    0
370
   -2
100
AcDbTrace
 10
-8.158668220874461
 20
0
 30
0
 11
-8.325182083983597
 21
1
 31
0
 12
-7.992154357765324
 22
1
 32
0
 13
-7.992154357765324
 23
1
 33
0
  0
SOLID
  5
88
100
AcDbEntity
  8
DimLines
  6
ByBlock
 62
    0
370
   -2
100
AcDbTrace
 10
-8.158668220874457
 20
70
 30
0
 11
-7.992154357765321
 21
69
 31
0
 12
-8.325182083983593
 22
69
 32
0
 13
-8.325182083983593
 23
69
 33
0
  0
MTEXT
  5
89
100
AcDbEntity
  8
DimLines
  6
CONTINUOUS
 62
    0
370
   -2
100
AcDbMText
 10
-7.633668220874458
 20
35
 30
0
 40
1
 41
1.222222222222222
 71
    5
 72
    1
  1
70
  7
standard
210
0
220
0
230
1
 50
270
 73
    2
 44
1
  0
LINE
  5
8A
100
AcDbEntity
  8
DimLines
  6
ByBlock
 62
    0
370
   -2
100
AcDbLine
 10
-0.025
 20
3.061616997868383e-18
 11
-8.208668220874461
 21
6.123233995736766e-18
  0
LINE
  5
8B
100
AcDbEntity
  8
DimLines
  6
ByBlock
 62
    0
370
   -2
100
AcDbLine
 10
9.975
 20
70
 11
-8.208668220874458
 21
70
  0
ENDBLK
  5
58
330
56
100
AcDbEntity
  8
0
100
AcDbBlockEnd
  0
BLOCK
  5
5A
330
59
100
AcDbEntity
  8
0
100
AcDbBlockBegin
  2
*D5
 70
    1
 10
0
 20
0
  3
*D5
  1

  0
LINE
  5
8C
100
AcDbEntity
  8
DimLines
  6
ByBlock
 62
    0
370
   -2
100
AcDbLine
 10
-1.999999999999998
 20
60
 11
-2.000000000000002
 21
1.243449787580177e-16
  0
SOLID
  5
8D
100
AcDbEntity
  8
DimLines
  6
ByBlock
 62
    0
370
   -2
100
AcDbTrace
 10
-1.999999999999998
 20
60
 30
0
 11
-1.833486136890862
 21
59
 31
0
 12
-2.166513863109135
 22
59
 32
0
 13
-2.166513863109135
 23
59
 33
0
  0
SOLID
  5
8E
100
AcDbEntity
  8
DimLines
  6
ByBlock
 62
    0
370
   -2
100
AcDbTrace
 10
-2.000000000000002
 20
1.243449787580177e-16
 30
0
 11
-2.166513863109138
 21
1
 31
0
 12
-1.833486136890866
 22
1
 32
0
 13
-1.833486136890866
 23
1
 33
0
  0
MTEXT
  5
8F
100
AcDbEntity
  8
DimLines
  6
CONTINUOUS
 62
    0
370
   -2
100
AcDbMText
 10
-2.525
 20
30
 30
0
 40
1
 41
1.222222222222284
 71
    5
 72
    1
  1
60
  7
standard
210
0
220
0
230
1
 50
90
 73
    2
 44
1
  0
LINE
  5
90
100
AcDbEntity
  8
DimLines
  6
ByBlock
 62
    0
370
   -2
100
AcDbLine
 10
-0.025
 20
60
 11
-2.049999999999998
 21
60
  0
LINE
  5
91
100
AcDbEntity
  8
DimLines
  6
ByBlock
 62
    0
370
   -2
100
AcDbLine
 10
-0.025
 20
3.061616997868383e-18
 11
-2.050000000000002
 21
1.304682127537544e-16
  0
ENDBLK
  5
5B
330
59
100
AcDbEntity
  8
0
100
AcDbBlockEnd
  0
BLOCK
  5
5D
330
5C
100
AcDbEntity
  8
0
100
AcDbBlockBegin
  2
*D7
 70
    1
 10
0
 20
0
  3
*D7
  1

  0
LINE
  5
92
100
AcDbEntity
  8
DimLines
  6
ByBlock
 62
    0
370
   -2
100
AcDbLine
 10
10
 20
73
 11
27
 21
73
  0
SOLID
  5
93
100
AcDbEntity
  8
DimLines
  6
ByBlock
 62
    0
370
   -2
100
AcDbTrace
 10
10
 20
73
 30
0
 11
11
 21
73.16651386310913
 31
0
 12
11
 22
72.83348613689087
 32
0
 13
11
 23
72.83348613689087
 33
0
  0
SOLID
  5
94
100
AcDbEntity
  8
DimLines
  6
ByBlock
 62
    0
370
   -2
100
AcDbTrace
 10
27
 20
73
 30
0
 11
26
 21
72.83348613689087
 31
0
 12
26
 22
73.16651386310913
 32
0
 13
26
 23
73.16651386310913
 33
0
  0
MTEXT
  5
95
100
AcDbEntity
  8
DimLines
  6
CONTINUOUS
 62
    0
370
   -2
100
AcDbMText
 10
18.5
 20
73.52500000000001
 30
0
 40
1
 41
1
 71
    5
 72
    1
  1
17
  7
standard
210
0
220
0
230
1
 50
0
 73
    2
 44
1
  0
LINE
  5
96
100
AcDbEntity
  8
DimLines
  6
ByBlock
 62
    0
370
   -2
100
AcDbLine
 10
10
 20
70.02500000000001
 11
10
 21
73.05
  0
LINE
  5
97
100
AcDbEntity
  8
DimLines
  6
ByBlock
 62
    0
370
   -2
100
AcDbLine
 10
27
 20
70.02500000000001
 11
27
 21
73.05
  0
ENDBLK
  5
5E
330
5C
100
AcDbEntity
  8
0
100
AcDbBlockEnd
  0
BLOCK
  5
60
330
5F
100
AcDbEntity
  8
0
100
AcDbBlockBegin
  2
*D11
 70
    1
 10
0
 20
0
  3
*D11
  1

  0
LINE
  5
98
100
AcDbEntity
  8
DimLines
  6
ByBlock
 62
    0
370
   -2
100
AcDbLine
 10
38
 20
40
 11
38
 21
34
  0
SOLID
  5
99
100
AcDbEntity
  8
DimLines
  6
ByBlock
 62
    0
370
   -2
100
AcDbTrace
 10
38
 20
38
 30
0
 11
37.83348613689086
 21
39
 31
0
 12
38.16651386310914
 22
39
 32
0
 13
38.16651386310914
 23
39
 33
0
  0
SOLID
  5
9A
100
AcDbEntity
  8
DimLines
  6
ByBlock
 62
    0
370
   -2
100
AcDbTrace
 10
38
 20
36
 30
0
 11
38.16651386310914
 21
35
 31
0
 12
37.83348613689086
 22
35
 32
0
 13
37.83348613689086
 23
35
 33
0
  0
MTEXT
  5
9B
100
AcDbEntity
  8
DimLines
  6
CONTINUOUS
 62
    0
370
   -2
100
AcDbMText
 10
37.475
 20
37
 30
0
 40
1
 41
0.4444444444444444
 71
    5
 72
    1
  1
2
  7
standard
210
0
220
0
230
1
 50
90
 73
    2
 44
1
  0
LINE
  5
9C
100
AcDbEntity
  8
DimLines
  6
ByBlock
 62
    0
370
   -2
100
AcDbLine
 10
36.025
 20
38
 11
38.05
 21
38
  0
LINE
  5
9D
100
AcDbEntity
  8
DimLines
  6
ByBlock
 62
    0
370
   -2
100
AcDbLine
 10
36.025
 20
36
 11
38.05
 21
36
  0
ENDBLK
  5
61
330
5F
100
AcDbEntity
  8
0
100
AcDbBlockEnd
  0
BLOCK
  5
63
330
62
100
AcDbEntity
  8
0
100
AcDbBlockBegin
  2
*D12
 70
    1
 10
0
 20
0
  3
*D12
  1

  0
LINE
  5
9E
100
AcDbEntity
  8
DimLines
  6
ByBlock
 62
    0
370
   -2
100
AcDbLine
 10
36
 20
-3
 11
30
 21
-3
  0
SOLID
  5
9F
100
AcDbEntity
  8
DimLines
  6
ByBlock
 62
    0
370
   -2
100
AcDbTrace
 10
36
 20
-3
 30
0
 11
35
 21
-3.166513863109136
 31
0
 12
35
 22
-2.833486136890864
 32
0
 13
35
 23
-2.833486136890864
 33
0
  0
SOLID
  5
A0
100
AcDbEntity
  8
DimLines
  6
ByBlock
 62
    0
370
   -2
100
AcDbTrace
 10
30
 20
-3
 30
0
 11
31
 21
-2.833486136890864
 31
0
 12
31
 22
-3.166513863109136
 32
0
 13
31
 23
-3.166513863109136
 33
0
  0
MTEXT
  5
A1
100
AcDbEntity
  8
DimLines
  6
CONTINUOUS
 62
    0
370
   -2
100
AcDbMText
 10
33
 20
-2.475
 30
0
 40
1
 41
0.4444444444445064
 71
    5
 72
    1
  1
6
  7
standard
210
0
220
0
230
1
 50
360
 73
    2
 44
1
  0
LINE
  5
A2
100
AcDbEntity
  8
DimLines
  6
ByBlock
 62
    0
370
   -2
100
AcDbLine
 10
36
 20
35.975
 11
36
 21
-3.05
  0
LINE
  5
A3
100
AcDbEntity
  8
DimLines
  6
ByBlock
 62
    0
370
   -2
100
AcDbLine
 10
30
 20
-0.025
 11
30
 21
-3.05
  0
ENDBLK
  5
64
330
62
100
AcDbEntity
  8
0
100
AcDbBlockEnd
  0
BLOCK
  5
66
330
65
100
AcDbEntity
  8
0
100
AcDbBlockBegin
  2
*D4
 70
    1
 10
0
 20
0
  3
*D4
  1

  0
LINE
  5
A4
100
AcDbEntity
  8
DimLines
  6
ByBlock
 62
    0
370
   -2
100
AcDbLine
 10
60
 20
-4
 11
84
 21
-4
  0
SOLID
  5
A5
100
AcDbEntity
  8
DimLines
  6
ByBlock
 62
    0
370
   -2
100
AcDbTrace
 10
60
 20
-4
 30
0
 11
61
 21
-3.833486136890864
 31
0
 12
61
 22
-4.166513863109136
 32
0
 13
61
 23
-4.166513863109136
 33
0
  0
SOLID
  5
A6
100
AcDbEntity
  8
DimLines
  6
ByBlock
 62
    0
370
   -2
100
AcDbTrace
 10
84
 20
-4
 30
0
 11
83
 21
-4.166513863109136
 31
0
 12
83
 22
-3.833486136890864
 32
0
 13
83
 23
-3.833486136890864
 33
0
  0
MTEXT
  5
A7
100
AcDbEntity
  8
DimLines
  6
CONTINUOUS
 62
    0
370
   -2
100
AcDbMText
 10
72
 20
-3.475
 30
0
 40
1
 41
1.333333333333333
 71
    5
 72
    1
  1
24
  7
standard
210
0
220
0
230
1
 50
0
 73
    2
 44
1
  0
LINE
  5
A8
100
AcDbEntity
  8
DimLines
  6
ByBlock
 62
    0
370
   -2
100
AcDbLine
 10
60
 20
-0.025
 11
60
 21
-4.05
  0
LINE
  5
A9
100
AcDbEntity
  8
DimLines
  6
ByBlock
 62
    0
370
   -2
100
AcDbLine
 10
84
 20
-0.025
 11
84
 21
-4.05
  0
ENDBLK
  5
67
330
65
100
AcDbEntity
  8
0
100
AcDbBlockEnd
  0
BLOCK
  5
69
330
68
100
AcDbEntity
  8
0
100
AcDbBlockBegin
  2
*D9
 70
    1
 10
0
 20
0
  3
*D9
  1

  0
LINE
  5
AA
100
AcDbEntity
  8
DimLines
  6
ByBlock
 62
    0
370
   -2
100
AcDbLine
 10
27
 20
39
 11
36
 21
39
  0
SOLID
  5
AB
100
AcDbEntity
  8
DimLines
  6
ByBlock
 62
    0
370
   -2
100
AcDbTrace
 10
27
 20
39
 30
0
 11
28
 21
39.16651386310914
 31
0
 12
28
 22
38.83348613689086
 32
0
 13
28
 23
38.83348613689086
 33
0
  0
SOLID
  5
AC
100
AcDbEntity
  8
DimLines
  6
ByBlock
 62
    0
370
   -2
100
AcDbTrace
 10
36
 20
39
 30
0
 11
35
 21
38.83348613689086
 31
0
 12
35
 22
39.16651386310914
 32
0
 13
35
 23
39.16651386310914
 33
0
  0
MTEXT
  5
AD
100
AcDbEntity
  8
DimLines
  6
CONTINUOUS
 62
    0
370
   -2
100
AcDbMText
 10
31.5
 20
39.525
 30
0
 40
1
 41
0.4444444444445064
 71
    5
 72
    1
  1
9
  7
standard
210
0
220
0
230
1
 50
0
 73
    2
 44
1
  0
LINE
  5
AE
100
AcDbEntity
  8
DimLines
  6
ByBlock
 62
    0
370
   -2
100
AcDbLine
 10
27
 20
38.025
 11
27
 21
39.05
  0
LINE
  5
AF
100
AcDbEntity
  8
DimLines
  6
ByBlock
 62
    0
370
   -2
100
AcDbLine
 10
36
 20
38.025
 11
36
 21
39.05
  0
ENDBLK
  5
6A
330
68
100
AcDbEntity
  8
0
100
AcDbBlockEnd
  0
BLOCK
  5
6C
330
6B
100
AcDbEntity
  8
0
100
AcDbBlockBegin
  2
*D13
 70
    1
 10
0
 20
0
  3
*D13
  1

  0
LINE
  5
B0
100
AcDbEntity
  8
DimLines
  6
ByBlock
 62
    0
370
   -2
100
AcDbLine
 10
36
 20
-5.999999999999998
 11
0
 21
-5.999999999999998
  0
SOLID
  5
B1
100
AcDbEntity
  8
DimLines
  6
ByBlock
 62
    0
370
   -2
100
AcDbTrace
 10
36
 20
-5.999999999999998
 30
0
 11
35
 21
-6.166513863109135
 31
0
 12
35
 22
-5.833486136890862
 32
0
 13
35
 23
-5.833486136890862
 33
0
  0
SOLID
  5
B2
100
AcDbEntity
  8
DimLines
  6
ByBlock
 62
    0
370
   -2
100
AcDbTrace
 10
0
 20
-5.999999999999998
 30
0
 11
1
 21
-5.833486136890862
 31
0
 12
1
 22
-6.166513863109135
 32
0
 13
1
 23
-6.166513863109135
 33
0
  0
MTEXT
  5
B3
100
AcDbEntity
  8
DimLines
  6
CONTINUOUS
 62
    0
370
   -2
100
AcDbMText
 10
18
 20
-5.474999999999998
 30
0
 40
1
 41
1.222222222222346
 71
    5
 72
    1
  1
36
  7
standard
210
0
220
0
230
1
 50
360
 73
    2
 44
1
  0
LINE
  5
B4
100
AcDbEntity
  8
DimLines
  6
ByBlock
 62
    0
370
   -2
100
AcDbLine
 10
36
 20
35.975
 11
36
 21
-6.049999999999998
  0
LINE
  5
B5
100
AcDbEntity
  8
DimLines
  6
ByBlock
 62
    0
370
   -2
100
AcDbLine
 10
-4.592425496802574e-18
 20
-0.025
 11
-9.184850993605149e-18
 21
-6.049999999999998
  0
ENDBLK
  5
6D
330
6B
100
AcDbEntity
  8
0
100
AcDbBlockEnd
  0
BLOCK
  5
6F
330
6E
100
AcDbEntity
  8
0
100
AcDbBlockBegin
  2
*D10
 70
    1
 10
0
 20
0
  3
*D10
  1

  0
LINE
  5
B6
100
AcDbEntity
  8
DimLines
  6
ByBlock
 62
    0
370
   -2
100
AcDbLine
 10
38
 20
42
 11
38
 21
36
  0
SOLID
  5
B7
100
AcDbEntity
  8
DimLines
  6
ByBlock
 62
    0
370
   -2
100
AcDbTrace
 10
38
 20
40
 30
0
 11
37.83348613689086
 21
41
 31
0
 12
38.16651386310914
 22
41
 32
0
 13
38.16651386310914
 23
41
 33
0
  0
SOLID
  5
B8
100
AcDbEntity
  8
DimLines
  6
ByBlock
 62
    0
370
   -2
100
AcDbTrace
 10
38
 20
38
 30
0
 11
38.16651386310914
 21
37
 31
0
 12
37.83348613689086
 22
37
 32
0
 13
37.83348613689086
 23
37
 33
0
  0
MTEXT
  5
B9
100
AcDbEntity
  8
DimLines
  6
CONTINUOUS
 62
    0
370
   -2
100
AcDbMText
 10
37.475
 20
39
 30
0
 40
1
 41
0.4444444444444444
 71
    5
 72
    1
  1
2
  7
standard
210
0
220
0
230
1
 50
90
 73
    2
 44
1
  0
LINE
  5
BA
100
AcDbEntity
  8
DimLines
  6
ByBlock
 62
    0
370
   -2
100
AcDbLine
 10
27.025
 20
40
 11
38.05
 21
40
  0
LINE
  5
BB
100
AcDbEntity
  8
DimLines
  6
ByBlock
 62
    0
370
   -2
100
AcDbLine
 10
27.025
 20
38
 11
38.05
 21
38
  0
ENDBLK
  5
70
330
6E
100
AcDbEntity
  8
0
100
AcDbBlockEnd
  0
BLOCK
  5
72
330
71
100
AcDbEntity
  8
0
100
AcDbBlockBegin
  2
*D6
 70
    1
 10
0
 20
0
  3
*D6
  1

  0
LINE
  5
BC
100
AcDbEntity
  8
DimLines
  6
ByBlock
 62
    0
370
   -2
100
AcDbLine
 10
-2
 20
60
 11
-2
 21
70
  0
SOLID
  5
BD
100
AcDbEntity
  8
DimLines
  6
ByBlock
 62
    0
370
   -2
100
AcDbTrace
 10
-2
 20
60
 30
0
 11
-2.166513863109136
 21
61
 31
0
 12
-1.833486136890864
 22
61
 32
0
 13
-1.833486136890864
 23
61
 33
0
  0
SOLID
  5
BE
100
AcDbEntity
  8
DimLines
  6
ByBlock
 62
    0
370
   -2
100
AcDbTrace
 10
-2
 20
70
 30
0
 11
-1.833486136890864
 21
69
 31
0
 12
-2.166513863109136
 22
69
 32
0
 13
-2.166513863109136
 23
69
 33
0
  0
MTEXT
  5
BF
100
AcDbEntity
  8
DimLines
  6
CONTINUOUS
 62
    0
370
   -2
100
AcDbMText
 10
-1.475
 20
65
 30
0
 40
1
 41
1
 71
    5
 72
    1
  1
10
  7
standard
210
0
220
0
230
1
 50
270
 73
    2
 44
1
  0
LINE
  5
C0
100
AcDbEntity
  8
DimLines
  6
ByBlock
 62
    0
370
   -2
100
AcDbLine
 10
-0.025
 20
60
 11
-2.05
 21
60
  0
LINE
  5
C1
100
AcDbEntity
  8
DimLines
  6
ByBlock
 62
    0
370
   -2
100
AcDbLine
 10
9.975
 20
70
 11
-2.05
 21
70
  0
ENDBLK
  5
73
330
71
100
AcDbEntity
  8
0
100
AcDbBlockEnd
  0
BLOCK
  5
75
330
74
100
AcDbEntity
  8
0
100
AcDbBlockBegin
  2
*D14
 70
    1
 10
0
 20
0
  3
*D14
  1

  0
LINE
  5
C2
100
AcDbEntity
  8
DimLines
  6
ByBlock
 62
    0
370
   -2
100
AcDbLine
 10
38
 20
32
 11
38
 21
36
  0
SOLID
  5
C3
100
AcDbEntity
  8
DimLines
  6
ByBlock
 62
    0
370
   -2
100
AcDbTrace
 10
38
 20
32
 30
0
 11
37.83348613689086
 21
33
 31
0
 12
38.16651386310914
 22
33
 32
0
 13
38.16651386310914
 23
33
 33
0
  0
SOLID
  5
C4
100
AcDbEntity
  8
DimLines
  6
ByBlock
 62
    0
370
   -2
100
AcDbTrace
 10
38
 20
36
 30
0
 11
38.16651386310914
 21
35
 31
0
 12
37.83348613689086
 22
35
 32
0
 13
37.83348613689086
 23
35
 33
0
  0
MTEXT
  5
C5
100
AcDbEntity
  8
DimLines
  6
CONTINUOUS
 62
    0
370
   -2
100
AcDbMText
 10
38.525
 20
34
 30
0
 40
1
 41
0.5555555555555556
 71
    5
 72
    1
  1
4
  7
standard
210
0
220
0
230
1
 50
270
 73
    2
 44
1
  0
LINE
  5
C6
100
AcDbEntity
  8
DimLines
  6
ByBlock
 62
    0
370
   -2
100
AcDbLine
 10
30.025
 20
32
 11
38.05
 21
32
  0
LINE
  5
C7
100
AcDbEntity
  8
DimLines
  6
ByBlock
 62
    0
370
   -2
100
AcDbLine
 10
36.025
 20
36
 11
38.05
 21
36
  0
ENDBLK
  5
76
330
74
100
AcDbEntity
  8
0
100
AcDbBlockEnd
  0
BLOCK
  5
78
330
77
100
AcDbEntity
  8
0
100
AcDbBlockBegin
  2
*D8
 70
    1
 10
0
 20
0
  3
*D8
  1

  0
LINE
  5
C8
100
AcDbEntity
  8
DimLines
  6
ByBlock
 62
    0
370
   -2
100
AcDbLine
 10
0
 20
73
 11
10
 21
73
  0
SOLID
  5
C9
100
AcDbEntity
  8
DimLines
  6
ByBlock
 62
    0
370
   -2
100
AcDbTrace
 10
0
 20
73
 30
0
 11
1
 21
73.16651386310913
 31
0
 12
1
 22
72.83348613689087
 32
0
 13
1
 23
72.83348613689087
 33
0
  0
SOLID
  5
CA
100
AcDbEntity
  8
DimLines
  6
ByBlock
 62
    0
370
   -2
100
AcDbTrace
 10
10
 20
73
 30
0
 11
9
 21
72.83348613689087
 31
0
 12
9
 22
73.16651386310913
 32
0
 13
9
 23
73.16651386310913
 33
0
  0
MTEXT
  5
CB
100
AcDbEntity
  8
DimLines
  6
CONTINUOUS
 62
    0
370
   -2
100
AcDbMText
 10
5
 20
73.52500000000001
 30
0
 40
1
 41
1
 71
    5
 72
    1
  1
10
  7
standard
210
0
220
0
230
1
 50
0
 73
    2
 44
1
  0
LINE
  5
CC
100
AcDbEntity
  8
DimLines
  6
ByBlock
 62
    0
370
   -2
100
AcDbLine
 10
1.530808498934192e-18
 20
60.025
 11
3.061616997868383e-18
 21
73.05
  0
LINE
  5
CD
100
AcDbEntity
  8
DimLines
  6
ByBlock
 62
    0
370
   -2
100
AcDbLine
 10
10
 20
70.02500000000001
 11
10
 21
73.05
  0
ENDBLK
  5
79
330
77
100
AcDbEntity
  8
0
100
AcDbBlockEnd
  0
BLOCK
  5
7B
330
7A
100
AcDbEntity
  8
0
100
AcDbBlockBegin
  2
*D1
 70
    1
 10
0
 20
0
  3
*D1
  1

  0
LINE
  5
CE
100
AcDbEntity
  8
DimLines
  6
ByBlock
 62
    0
370
   -2
100
AcDbLine
 10
30.025
 20
32
 11
35.05
 21
32
  0
LINE
  5
CF
100
AcDbEntity
  8
DimLines
  6
ByBlock
 62
    0
370
   -2
100
AcDbLine
 10
30.025
 20
-6.123233995736766e-18
 11
35.05
 21
-1.236893267138827e-15
  0
LINE
  5
D0
100
AcDbEntity
  8
DimLines
  6
ByBlock
 62
    0
370
   -2
100
AcDbLine
 10
35
 20
32
 11
35
 21
-1.224646799147353e-15
  0
SOLID
  5
D1
100
AcDbEntity
  8
DimLines
  6
ByBlock
 62
    0
370
   -2
100
AcDbTrace
 10
35
 20
32
 30
0
 11
35.16651386310914
 21
31
 31
0
 12
34.83348613689086
 22
31
 32
0
 13
34.83348613689086
 23
31
 33
0
  0
SOLID
  5
D2
100
AcDbEntity
  8
DimLines
  6
ByBlock
 62
    0
370
   -2
100
AcDbTrace
 10
35
 20
-1.224646799147353e-15
 30
0
 11
34.83348613689086
 21
0.9999999999999988
 31
0
 12
35.16651386310914
 22
0.9999999999999988
 32
0
 13
35.16651386310914
 23
0.9999999999999988
 33
0
  0
MTEXT
  5
D3
100
AcDbEntity
  8
DimLines
  6
CONTINUOUS
 62
    0
370
   -2
100
AcDbMText
 10
34.475
 20
16
 30
0
 40
1
 41
1.222222222222284
 71
    5
 72
    1
  1
32
  7
standard
210
0
220
0
230
1
 50
90
 73
    2
 44
1
  0
ENDBLK
  5
7C
330
7A
100
AcDbEntity
  8
0
100
AcDbBlockEnd
  0
BLOCK
  5
7E
330
7D
100
AcDbEntity
  8
0
100
AcDbBlockBegin
  2
*D15
 70
    1
 10
0
 20
0
  3
*D15
  1

  0
LINE
  5
D4
100
AcDbEntity
  8
DimLines
  6
ByBlock
 62
    0
370
   -2
100
AcDbLine
 10
40
 20
38
 11
40
 21
-7.105427357601002e-16
  0
SOLID
  5
D5
100
AcDbEntity
  8
DimLines
  6
ByBlock
 62
    0
370
   -2
100
AcDbTrace
 10
40
 20
38
 30
0
 11
40.16651386310914
 21
37
 31
0
 12
39.83348613689086
 22
37
 32
0
 13
39.83348613689086
 23
37
 33
0
  0
SOLID
  5
D6
100
AcDbEntity
  8
DimLines
  6
ByBlock
 62
    0
370
   -2
100
AcDbTrace
 10
40
 20
-7.105427357601002e-16
 30
0
 11
39.83348613689086
 21
0.9999999999999993
 31
0
 12
40.16651386310914
 22
0.9999999999999993
 32
0
 13
40.16651386310914
 23
0.9999999999999993
 33
0
  0
MTEXT
  5
D7
100
AcDbEntity
  8
DimLines
  6
CONTINUOUS
 62
    0
370
   -2
100
AcDbMText
 10
39.475
 20
19
 30
0
 40
1
 41
1.222222222222284
 71
    5
 72
    1
  1
38
  7
standard
210
0
220
0
230
1
 50
90
 73
    2
 44
1
  0
LINE
  5
D8
100
AcDbEntity
  8
DimLines
  6
ByBlock
 62
    0
370
   -2
100
AcDbLine
 10
36.025
 20
38
 11
40.05
 21
38
  0
LINE
  5
D9
100
AcDbEntity
  8
DimLines
  6
ByBlock
 62
    0
370
   -2
100
AcDbLine
 10
30.025
 20
0
 11
40.05
 21
-7.105427357601002e-16
  0
ENDBLK
  5
7F
330
7D
100
AcDbEntity
  8
0
100
AcDbBlockEnd
  0
ENDSEC
  0
SECTION
  2
ENTITIES
  0
LINE
  5
DA
100
AcDbEntity
  8
ObjectLines
  6
ByLayer
 62
  256
370
   -1
100
AcDbLine
 10
19
 20
59
 11
27
 21
40
  0
LINE
  5
DB
100
AcDbEntity
  8
ObjectLines
  6
ByLayer
 62
  256
370
   -1
100
AcDbLine
 10
27
 20
40
 11
27
 21
38
  0
LINE
  5
DC
100
AcDbEntity
  8
ObjectLines
  6
ByLayer
 62
  256
370
   -1
100
AcDbLine
 10
27
 20
38
 11
36
 21
38
  0
LINE
  5
DD
100
AcDbEntity
  8
ObjectLines
  6
ByLayer
 62
  256
370
   -1
100
AcDbLine
 10
36
 20
38
 11
36
 21
36
  0
LINE
  5
DE
100
AcDbEntity
  8
ObjectLines
  6
ByLayer
 62
  256
370
   -1
100
AcDbLine
 10
36
 20
36
 11
30
 21
32
  0
LINE
  5
DF
100
AcDbEntity
  8
ObjectLines
  6
ByLayer
 62
  256
370
   -1
100
AcDbLine
 10
30
 20
32
 11
30
 21
0
  0
POINT
  5
E0
100
AcDbEntity
  8
DimLines
  6
ByLayer
 62
  256
370
   -1
100
AcDbPoint
 10
0
 20
60
  0
MTEXT
  5
E1
100
AcDbEntity
  8
Text
  6
ByLayer
 62
  256
370
   -1
100
AcDbMText
 10
60.43200686840398
 20
73.81160345079137
 30
0
 40
1
 41
7.194444444444491
 71
    1
 72
    1
  1
Front View
  7
standard
210
0
220
0
230
1
 50
0
 73
    2
 44
1
  0
MTEXT
  5
E2
100
AcDbEntity
  8
Text
  6
ByLayer
 62
  256
370
   -1
100
AcDbMText
 10
-7.227593414045253
 20
74.21883559584103
 30
0
 40
1
 41
6.305555343553406
 71
    1
 72
    1
  1
Side View
  7
standard
210
0
220
0
230
1
 50
0
 73
    2
 44
1
  0
LINE
  5
E3
100
AcDbEntity
  8
ObjectLines
  6
ByLayer
 62
  256
370
   -1
100
AcDbLine
 10
60
 20
64
 11
84
 21
64
  0
LINE
  5
E4
100
AcDbEntity
  8
ObjectLines
  6
ByLayer
 62
  256
370
   -1
100
AcDbLine
 10
60
 20
59
 11
84
 21
59
  0
LINE
  5
E5
100
AcDbEntity
  8
ObjectLines
  6
ByLayer
 62
  256
370
   -1
100
AcDbLine
 10
60
 20
40
 11
84
 21
40
  0
LINE
  5
E6
100
AcDbEntity
  8
ObjectLines
  6
ByLayer
 62
  256
370
   -1
100
AcDbLine
 10
60
 20
38
 11
84
 21
38
  0
LINE
  5
E7
100
AcDbEntity
  8
ObjectLines
  6
ByLayer
 62
  256
370
   -1
100
AcDbLine
 10
60
 20
36
 11
84
 21
36
  0
LINE
  5
E8
100
AcDbEntity
  8
ObjectLines
  6
ByLayer
 62
  256
370
   -1
100
AcDbLine
 10
60
 20
32
 11
84
 21
32
  0
LINE
  5
E9
100
AcDbEntity
  8
ObjectLines
  6
ByLayer
 62
  256
370
   -1
100
AcDbLine
 10
0
 20
0
 11
0
 21
60
  0
LINE
  5
EA
100
AcDbEntity
  8
ObjectLines
  6
ByLayer
 62
  256
370
   -1
100
AcDbLine
 10
60
 20
0
 11
60
 21
70
  0
LINE
  5
EB
100
AcDbEntity
  8
ObjectLines
  6
ByLayer
 62
  256
370
   -1
100
AcDbLine
 10
60
 20
70
 11
84
 21
70
  0
LINE
  5
EC
100
AcDbEntity
  8
ObjectLines
  6
ByLayer
 62
  256
370
   -1
100
AcDbLine
 10
84
 20
70
 11
84
 21
0
  0
LINE
  5
ED
100
AcDbEntity
  8
ObjectLines
  6
ByLayer
 62
  256
370
   -1
100
AcDbLine
 10
27
 20
70
 11
27
 21
64
  0
LINE
  5
EE
100
AcDbEntity
  8
ObjectLines
  6
ByLayer
 62
  256
370
   -1
100
AcDbLine
 10
0
 20
60
 11
10
 21
70
  0
LINE
  5
EF
100
AcDbEntity
  8
ObjectLines
  6
ByLayer
 62
  256
370
   -1
100
AcDbLine
 10
10
 20
70
 11
27
 21
70
  0
LINE
  5
F0
100
AcDbEntity
  8
HiddenLines
  6
ByLayer
 62
  256
370
   -1
100
AcDbLine
 10
60
 20
60
 11
84
 21
60
  0
DIMENSION
  5
F1
100
AcDbEntity
  8
DimLines
  6
ByLayer
 62
  256
370
   -1
100
AcDbDimension
  2
*D1
 10
35
 20
-1.224646799147353e-15
 30
0
 11
34.475
 21
16
 31
0
 70
   33
 71
    5
  3
Standard
 53
0
210
0
220
0
230
1
100
AcDbAlignedDimension
 13
30
 23
32
 33
0
 14
30
 24
0
 34
0
  0
DIMENSION
  5
F2
100
AcDbEntity
  8
DimLines
  6
ByLayer
 62
  256
370
   -1
100
AcDbDimension
  2
*D2
 10
30
 20
-3
 30
0
 11
15
 21
-2.475
 31
0
 70
   33
 71
    5
  3
Standard
 53
0
210
0
220
0
230
1
100
AcDbAlignedDimension
 13
0
 23
0
 33
0
 14
30
 24
0
 34
0
  0
LINE
  5
F3
100
AcDbEntity
  8
ObjectLines
  6
ByLayer
 62
  256
370
   -1
100
AcDbLine
 10
27
 20
64
 11
24
 21
64
  0
LINE
  5
F4
100
AcDbEntity
  8
ObjectLines
  6
ByLayer
 62
  256
370
   -1
100
AcDbLine
 10
24
 20
64
 11
19
 21
59
  0
DIMENSION
  5
F5
100
AcDbEntity
  8
DimLines
  6
ByLayer
 62
  256
370
   -1
100
AcDbDimension
  2
*D3
 10
-8.158668220874457
 20
70
 30
0
 11
-7.633668220874458
 21
35
 31
0
 70
   32
 71
    5
 72
    0
  3
Standard
 53
0
210
0
220
0
230
1
100
AcDbAlignedDimension
 13
0
 23
0
 33
0
 14
10
 24
70
 34
0
 50
90
100
AcDbRotatedDimension
  0
DIMENSION
  5
F6
100
AcDbEntity
  8
DimLines
  6
ByLayer
 62
  256
370
   -1
100
AcDbDimension
  2
*D4
 10
84
 20
-4
 30
0
 11
72
 21
-3.475
 31
0
 70
   32
 71
    5
 72
    0
  3
Standard
 53
0
210
0
220
0
230
1
100
AcDbAlignedDimension
 13
60
 23
0
 33
0
 14
84
 24
0
 34
0
100
AcDbRotatedDimension
  0
DIMENSION
  5
F7
100
AcDbEntity
  8
DimLines
  6
ByLayer
 62
  256
370
   -1
100
AcDbDimension
  2
*D5
 10
-2.000000000000002
 20
2.449293598294708e-16
 30
0
 11
-2.525
 21
30
 31
0
 70
   32
 71
    5
 72
    0
  3
Standard
 53
0
210
0
220
0
230
1
100
AcDbAlignedDimension
 13
0
 23
60
 33
0
 14
0
 24
0
 34
0
 50
90
100
AcDbRotatedDimension
  0
DIMENSION
  5
F8
100
AcDbEntity
  8
DimLines
  6
ByLayer
 62
  256
370
   -1
100
AcDbDimension
  2
*D6
 10
-2
 20
70
 30
0
 11
-1.475
 21
65
 31
0
 70
   32
 71
    5
 72
    0
  3
Standard
 53
0
210
0
220
0
230
1
100
AcDbAlignedDimension
 13
0
 23
60
 33
0
 14
10
 24
70
 34
0
 50
90
100
AcDbRotatedDimension
  0
DIMENSION
  5
F9
100
AcDbEntity
  8
DimLines
  6
ByLayer
 62
  256
370
   -1
100
AcDbDimension
  2
*D7
 10
27
 20
73
 30
0
 11
18.5
 21
73.52500000000001
 31
0
 70
   32
 71
    5
 72
    0
  3
Standard
 53
0
210
0
220
0
230
1
100
AcDbAlignedDimension
 13
10
 23
70
 33
0
 14
27
 24
70
 34
0
100
AcDbRotatedDimension
  0
DIMENSION
  5
FA
100
AcDbEntity
  8
DimLines
  6
ByLayer
 62
  256
370
   -1
100
AcDbDimension
  2
*D8
 10
10
 20
73
 30
0
 11
5
 21
73.52500000000001
 31
0
 70
   32
 71
    5
 72
    0
  3
Standard
 53
0
210
0
220
0
230
1
100
AcDbAlignedDimension
 13
0
 23
60
 33
0
 14
10
 24
70
 34
0
100
AcDbRotatedDimension
  0
DIMENSION
  5
FB
100
AcDbEntity
  8
DimLines
  6
ByLayer
 62
  256
370
   -1
100
AcDbDimension
  2
*D9
 10
36
 20
39
 30
0
 11
31.5
 21
39.525
 31
0
 70
   32
 71
    5
  3
Standard
 53
0
210
0
220
0
230
1
100
AcDbAlignedDimension
 13
27
 23
38
 33
0
 14
36
 24
38
 34
0
100
AcDbRotatedDimension
  0
DIMENSION
  5
FC
100
AcDbEntity
  8
DimLines
  6
ByLayer
 62
  256
370
   -1
100
AcDbDimension
  2
*D10
 10
38
 20
38
 30
0
 11
37.475
 21
39
 31
0
 70
   32
 71
    5
  3
Standard
 53
0
210
0
220
0
230
1
100
AcDbAlignedDimension
 13
27
 23
40
 33
0
 14
27
 24
38
 34
0
 50
90
100
AcDbRotatedDimension
  0
DIMENSION
  5
FD
100
AcDbEntity
  8
DimLines
  6
ByLayer
 62
  256
370
   -1
100
AcDbDimension
  2
*D11
 10
38
 20
36
 30
0
 11
37.475
 21
37
 31
0
 70
   32
 71
    5
  3
Standard
 53
0
210
0
220
0
230
1
100
AcDbAlignedDimension
 13
36
 23
38
 33
0
 14
36
 24
36
 34
0
 50
90
100
AcDbRotatedDimension
  0
DIMENSION
  5
FE
100
AcDbEntity
  8
DimLines
  6
ByLayer
 62
  256
370
   -1
100
AcDbDimension
  2
*D12
 10
30
 20
-3
 30
0
 11
33
 21
-2.475
 31
0
 70
   32
 71
    5
 72
    0
  3
Standard
 53
0
210
0
220
0
230
1
100
AcDbAlignedDimension
 13
36
 23
36
 33
0
 14
30
 24
0
 34
0
100
AcDbRotatedDimension
  0
DIMENSION
  5
FF
100
AcDbEntity
  8
DimLines
  6
ByLayer
 62
  256
370
   -1
100
AcDbDimension
  2
*D13
 10
-3.673940397442059e-16
 20
-5.999999999999998
 30
0
 11
18
 21
-5.474999999999998
 31
0
 70
   32
 71
    5
 72
    0
  3
Standard
 53
0
210
0
220
0
230
1
100
AcDbAlignedDimension
 13
36
 23
36
 33
0
 14
0
 24
0
 34
0
100
AcDbRotatedDimension
  0
DIMENSION
  5
100
100
AcDbEntity
  8
DimLines
  6
ByLayer
 62
  256
370
   -1
100
AcDbDimension
  2
*D14
 10
38
 20
36
 30
0
 11
38.525
 21
34
 31
0
 70
   32
 71
    5
 72
    0
  3
Standard
 53
0
210
0
220
0
230
1
100
AcDbAlignedDimension
 13
30
 23
32
 33
0
 14
36
 24
36
 34
0
 50
90
100
AcDbRotatedDimension
  0
DIMENSION
  5
101
100
AcDbEntity
  8
DimLines
  6
ByLayer
 62
  256
370
   -1
100
AcDbDimension
  2
*D15
 10
40
 20
-1.224646799147353e-15
 30
0
 11
39.475
 21
19
 31
0
 70
   32
 71
    5
 72
    0
  3
Standard
 53
0
210
0
220
0
230
1
100
AcDbAlignedDimension
 13
36
 23
38
 33
0
 14
30
 24
0
 34
0
 50
90
100
AcDbRotatedDimension
  0
LINE
  5
102
100
AcDbEntity
  8
ObjectLines
  6
ByLayer
 62
  256
370
   -1
100
AcDbLine
 10
0
 20
0
 11
30
 21
0
  0
LINE
  5
103
100
AcDbEntity
  8
ObjectLines
  6
ByLayer
 62
  256
370
   -1
100
AcDbLine
 10
60
 20
0
 11
84
 21
0
  0
LINE
  5
104
100
AcDbEntity
  8
ObjectLines
  6
ByLayer
 62
  256
370
   -1
100
AcDbLine
 10
0
 20
80
 11
36
 21
80
  0
LINE
  5
105
100
AcDbEntity
  8
ObjectLines
  6
ByLayer
 62
  256
370
   -1
100
AcDbLine
 10
36
 20
80
 11
36
 21
104
  0
LINE
  5
106
100
AcDbEntity
  8
ObjectLines
  6
ByLayer
 62
  256
370
   -1
100
AcDbLine
 10
36
 20
104
 11
0
 21
104
  0
LINE
  5
107
100
AcDbEntity
  8
ObjectLines
  6
ByLayer
 62
  256
370
   -1
100
AcDbLine
 10
0
 20
104
 11
0
 21
80
  0
LINE
  5
108
100
AcDbEntity
  8
ObjectLines
  6
ByLayer
 62
  256
370
   -1
100
AcDbLine
 10
10
 20
80
 11
10
 21
104
  0
LINE
  5
109
100
AcDbEntity
  8
ObjectLines
  6
ByLayer
 62
  256
370
   -1
100
AcDbLine
 10
27
 20
80
 11
27
 21
104
  0
LINE
  5
10A
100
AcDbEntity
  8
HiddenLines
  6
ByLayer
 62
  256
370
   -1
100
AcDbLine
 10
19
 20
80
 11
19
 21
104
  0
LINE
  5
10B
100
AcDbEntity
  8
HiddenLines
  6
ByLayer
 62
  256
370
   -1
100
AcDbLine
 10
24
 20
80
 11
24
 21
104
  0
LINE
  5
10C
100
AcDbEntity
  8
HiddenLines
  6
ByLayer
 62
  256
370
   -1
100
AcDbLine
 10
30
 20
80
 11
30
 21
104
  0
ENDSEC
  0
SECTION
  2
OBJECTS
  0
DICTIONARY
  5
C
330
0
100
AcDbDictionary
281
    1
  3
ACAD_GROUP
350
D
  0
DICTIONARY
  5
D
330
C
100
AcDbDictionary
281
    1
  0
ENDSEC
  0
EOF
